e a minha vez de jogar, posso comer, comer?
sim                   , nao        , nao
sim                   , sim        , sim
nao                   , nao        , nao
nao                   , sim        , nao