e a minha vez de jogar, a proxima casa esta vazia, mover?
sim                   , nao                      , nao
sim                   , nao                      , nao
sim                   , sim                      , sim
sim                   , sim                      , sim
nao                   , nao                      , nao
nao                   , nao                      , nao
nao                   , sim                      , nao
nao                   , sim                      , nao
